{
	"text": "Our perfect landscape website.",
	"images": [
		"https://i.imgur.com/2KGX6xS.jpg",
		"https://i.imgur.com/eFAcj8o.jpg",
		"https://i.imgur.com/oekrrcR.jpg",
		"https://i.imgur.com/Bqzoe.jpg"
	],
	"caption": "Mountain of snow"
}